docs/eJ32_trace_20240104.txt
# do /home/gnii/devel/fpga/eJsv32/vsim/vsim.mdo
# Loading project vsim
# Model Technology ModelSim - Lattice FPGA Edition vlog 2020.3 Compiler 2021.02 Feb 11 2021
# Start time: 19:22:32 on Jan 05,2024
# vlog -reportprogress 300 -sv -mfcu "+incdir+/home/gnii/devel/fpga/eJsv32/test" "+incdir+/home/gnii/devel/fpga/eJsv32/source" -work work /home/gnii/devel/fpga/eJsv32/test/dict_setup.sv /home/gnii/devel/fpga/eJsv32/source/eJ32_ls.sv /home/gnii/devel/fpga/eJsv32/source/eJ32_br.sv /home/gnii/devel/fpga/eJsv32/source/alu_ext.sv /home/gnii/devel/fpga/eJsv32/source/eJ32_au.sv /home/gnii/devel/fpga/eJsv32/source/eJ32_dc.sv /home/gnii/devel/fpga/eJsv32/source/spram.sv /home/gnii/devel/fpga/eJsv32/source/eJ32.sv /home/gnii/devel/fpga/eJsv32/test/outer_tb.sv /home/gnii/devel/fpga/eJsv32/source/eJ32_if.sv 
# -- Compiling package ej32_pkg
# -- Compiling interface EJ32_CTL
# -- Importing package ej32_pkg
# -- Compiling interface mb32_io
# -- Compiling interface mb8_io
# -- Compiling interface ss_io
# -- Compiling module dict_setup
# -- Compiling module EJ32_LS
# -- Compiling module EJ32_BR
# -- Compiling package dict_setup_sv_unit
# -- Importing package ej32_pkg
# -- Compiling module shifter
# -- Compiling module ushifter
# -- Compiling module mult
# -- Compiling module div_int
# -- Compiling module EJ32_AU
# -- Compiling module EJ32_DC
# ** Warning: /home/gnii/devel/fpga/eJsv32/source/eJ32_dc.sv(200): (vlog-2182) 'code_n' might be read before written in always_comb or always @* block.
# -- Compiling module spram32_32k
# -- Compiling module spram8_128k
# -- Compiling module EJ32
# -- Compiling module outer_tb
# 
# Top level modules:
# 	outer_tb
# End time: 19:22:32 on Jan 05,2024, Elapsed time: 0:00:00
# Errors: 0, Warnings: 1
# vsim -L work -L pmi_work -L ovi_ice40up outer_tb 
# Start time: 19:22:32 on Jan 05,2024
# //  ModelSim - Lattice FPGA Edition 2020.3 Feb 11 2021 Linux 5.15.0-91-generic
# //
# //  Copyright 1991-2021 Mentor Graphics Corporation
# //  All Rights Reserved.
# //
# //  ModelSim - Lattice FPGA Edition and its associated documentation contain trade
# //  secrets and commercial or financial information that are the property of
# //  Mentor Graphics Corporation and are privileged, confidential,
# //  and exempt from disclosure under the Freedom of Information Act,
# //  5 U.S.C. Section 552. Furthermore, this information
# //  is prohibited from disclosure under the Trade Secrets Act,
# //  18 U.S.C. Section 1905.
# //
# Loading sv_std.std
# Loading work.ej32_pkg
# Loading work.dict_setup_sv_unit
# Loading work.outer_tb
# Loading work.EJ32
# Loading work.mb8_io
# Loading work.spram8_128k
# Loading work.mb32_io
# Loading work.spram32_32k
# Loading ovi_ice40up.SP256K
# Loading ovi_ice40up.VLO
# Loading ovi_ice40up.VFB_B
# Loading ovi_ice40up.SPRAM256KA
# Loading ovi_ice40up.sadslspk4s1p16384x16m16b4w1c0p1d0t0
# Loading ovi_ice40up.generic_behav_sadslspk4s1p16384x16m16b4w1c0p1d0t0
# Loading work.EJ32_CTL
# Loading work.EJ32_DC
# Loading work.EJ32_AU
# Loading work.mult
# Loading work.div_int
# Loading work.shifter
# Loading work.ushifter
# Loading work.EJ32_BR
# Loading work.EJ32_LS
# Loading work.dict_setup
# .main_pane.wave.interior.cs.body.pw.wf
# ** UI-Msg: (vish-4014) No objects found matching '/*'.
# Error in macro /home/gnii/devel/fpga/eJsv32/vsim/vsim.mdo line 37
# ** UI-Msg: (vish-4014) No objects found matching '/*'.
#     while executing
# "add wave /*"
run -all
# ROM fed from file          0-2147483645
# ROM ok
# fill memory from ROM 0000-1400
# memory filled, context=0d4d
#  0d51: dup
#  0d44: count
#  0d34: 2@
#  0d25: 2!
#  0d1d: -rot
#  0d11: rot
#  0d03: +!
#  0cfb: bl
#  0cf3: cell+
#  0ce8: cell-
#  0cdd: 2+
#  0cd5: 2-
#  0ccd: 1+
#  0cc5: 1-
#  0cbe: negate
#  0cb2: not
#  0caa: xor
#  0ca2: and
#  0c9a: or
#  0c93: mod
#  0c8b: /
#  0c85: *
#  0c7f: -
#  0c79: +
#  0c73: 2dup
#  0c69: over
#  0c60: 2drop
#  0c56: drop
#  0c4d: swap
#  0c44: w@
#  0c3c: w!
#  0c35: c@
#  0c2d: c!
#  0c26: @
#  0c1f: !
#  0c1a: exit
#  0c07: immediate
# *0bf4: (
# *0be7: .(
# *0bdc: >r
# *0bd1: r@
# *0bc6: r>
#  0ba6: constant
#  0b8b: variable
#  0b68: create
#  0b55: code
#  0b42: does
#  0b39: dovar
#  0b2e: docon
# *0b15: ."
# *0aff: $"
# *0ae9: abort"
#  0ad1: $,"
# *0ac6: while
# *0ab6: else
# *0aa6: aft
# *0a99: repeat
# *0a82: ahead
# *0a6c: if
# *0a5e: again
# *0a4d: until
# *0a3c: next
# *0a2c: for
# *0a1f: then
# *0a14: begin
#  0a03: abs
#  09f7: ?dup
#  09e7: <
#  09da: >
#  09cd: =
#  09c0: 0<
#  09a1: cold
#  08c0: diagnose
#  08a0: case
#  087e: words
#  0818: see
#  0802: id
#  07e0: >name
#  07b5: dump
#  0793: dm+
#  0780: '
#  0772: :
# *0762: ;
#  0756: overt
#  0726: $,n
#  0704: ?unique
#  06ee: compile
#  06cd: error
#  06ae: abort"|
#  0638: quit
#  0606: ok
#  05ad: literal
#  059a: compil
#  0585: allot
#  0569: c,
#  0550: w,
#  0537: ,
#  052d: ]
# *0523: [
#  04fc: name?
#  04ac: same?
#  0499: name>
#  0488: word
#  0476: token
#  040d: parse
#  0399: number?
#  0346: digit?
#  0338: ?
#  032a: .
#  0317: .r
#  0305: ."|
#  02fb: $"|
#  02e7: do$
#  02d6: cr
#  02bf: type
#  02ad: >char
#  029a: spaces
#  028b: space
#  027c: decimal
#  026b: hex
#  024d: str
#  023c: #>
#  0226: sign
#  0214: #s
#  0205: #
#  01f4: hold
#  01e5: <#
#  01d8: extract
#  01ba: digit
#  01a2: fill
#  0187: cmove
#  0178: pad
#  016e: here
#  0165: execute
#  0156: */
#  014b: /mod
#  0134: min
#  011f: max
#  0117: emit
#  010e: key
#  0106: bye
# 
# dump tib: 0x1000
# 
# 1000: 31323334 35203637 3839300d 0a776f72  12345 67890..wor
# 1010: 64730d0a 3a207465 73743120 31203220  ds..: test1 1 2 
# 1020: 33203b0d 0a746573 74310d0a 3a207465  3 ;..test1..: te
# 1030: 73743220 69662031 20656c73 65203220  st2 if 1 else 2 
# 1040: 7468656e 202e203b 0d0a3020 74657374  then . ;..0 test
# 1050: 320d0a31 20746573 74320d0a 3a207465  2..1 test2..: te
# 1060: 73743320 31302066 6f722072 40202e20  st3 10 for r@ . 
# 1070: 6e657874 203b0d0a 74657374 330d0a3a  next ;..test3..:
# 1080: 20746573 74342031 3020666f 72206166   test4 10 for af
# 1090: 74207240 202e2074 68656e20 6e657874  t r@ . then next
# 10a0: 203b0d0a 74657374 340d0a3a 20746573   ;..test4..: tes
# 10b0: 74352031 30206265 67696e20 64757020  t5 10 begin dup 
# 10c0: 2e206475 70207768 696c6520 31202d20  . dup while 1 - 
# 10d0: 72657065 61742064 726f7020 3b0d0a74  repeat drop ;..t
# 10e0: 65737435 0d0a3a20 74657374 36206372  est5..: test6 cr
# 10f0: 202e2220 68656c6c 6f2c2077 6f726c64   ." hello, world
# 1100: 2122203b 0d0a7465 7374360d 0a627965  !" ;..test6..bye
# 1110: 0d0a0000 00000000 00000000 00000000  ................
# 1120: 00000000 00000000 00000000 00000000  ................
# 1130: 00000000 00000000 00000000 00000000  ................
# 1140: 00000000 00000000 00000000 00000000  ................
# 1150: 00000000 00000000 00000000 00000000  ................
# 1160: 00000000 00000000 00000000 00000000  ................
# 1170: 00000000 00000000 00000000 00000000  ................
# 1180: 00000000 00000000 00000000 00000000  ................
# 1190: 00000000 00000000 00000000 00000000  ................
# 11a0: 00000000 00000000 00000000 00000000  ................
# 11b0: 00000000 00000000 00000000 00000000  ................
# 11c0: 00000000 00000000 00000000 00000000  ................
# 11d0: 00000000 00000000 00000000 00000000  ................
# 11e0: 00000000 00000000 00000000 00000000  ................
# 11f0: 00000000 00000000 00000000 00000000  ................
# 1200: 00000000 00000000 00000000 00000000  ................
# 
#   9316> p:a[io]=0000:0000[b6:xx] rp=00<xxxx> sp=00<xxxxxxxx, 00000000> 00=0.nop             
#   9317> p:a[io]=0001:0000[09:xx] rp=00<xxxx> sp=00<xxxxxxxx, 00000000> b6=0.invokevirtual   
#   9318> p:a[io]=0002:0000[a1:xx] rp=01<0003> sp=00<xxxxxxxx, 00000000> b6=1.invokevirtual   
#   9319> p:a[io]=09a1:0000[xx:b6] rp=01<0003> sp=00<xxxxxxxx, 00000000> b6=2.invokevirtual      :: cold
#   9320> p:a[io]=09a2:0000[08:xx] rp=01<0003> sp=00<xxxxxxxx, 00000000> b6=0.invokevirtual   
#   9321> p:a[io]=09a3:0000[c0:xx] rp=02<09a4> sp=00<xxxxxxxx, 00000000> b6=1.invokevirtual   
#   9322> p:a[io]=08c0:0000[xx:d0] rp=02<09a4> sp=00<xxxxxxxx, 00000000> b6=2.invokevirtual        :: diagnose
#   9323> p:a[io]=08c1:0000[d1:xx] rp=02<09a4> sp=00<xxxxxxxx, 00000000> d0=0.get             
#   9324> p:a[io]=08c1:1000[31:xx] rp=02<09a4> sp=01<00000000, 00000000> d0=1.get             
#   9325> p:a[io]=08c1:1000[d1:xx] rp=02<09a4> sp=01<00000000, 00000031> d0=2.get             
#   9326> p:a[io]=08c2:1000[d0:xx] rp=02<09a4> sp=01<00000000, 00000031> d1=0.put             
#   9327> p:a[io]=08c2:1400[d0:xx] rp=02<09a4> sp=01<00000000, 00000031> d1=1.put             
#   9328> p:a[io]=08c3:1400[d1:xx] rp=02<09a4> sp=00<xxxxxxxx, 00000000> d0=0.get             
#   9329> p:a[io]=08c3:1001[32:xx] rp=02<09a4> sp=01<00000000, 00000000> d0=1.get             
#   9330> p:a[io]=08c3:1001[d1:xx] rp=02<09a4> sp=01<00000000, 00000032> d0=2.get             
#   9331> p:a[io]=08c4:1001[d0:xx] rp=02<09a4> sp=01<00000000, 00000032> d1=0.put             
#   9332> p:a[io]=08c4:1401[d0:xx] rp=02<09a4> sp=01<00000000, 00000032> d1=1.put             
#   9333> p:a[io]=08c5:1401[d1:xx] rp=02<09a4> sp=00<xxxxxxxx, 00000000> d0=0.get             
#   9334> p:a[io]=08c5:1002[33:xx] rp=02<09a4> sp=01<00000000, 00000000> d0=1.get             
#   9335> p:a[io]=08c5:1002[d1:xx] rp=02<09a4> sp=01<00000000, 00000033> d0=2.get             
#   9336> p:a[io]=08c6:1002[10:xx] rp=02<09a4> sp=01<00000000, 00000033> d1=0.put             
#   9337> p:a[io]=08c6:1402[10:xx] rp=02<09a4> sp=01<00000000, 00000033> d1=1.put             
#   9338> p:a[io]=08c7:1402[09:xx] rp=02<09a4> sp=00<xxxxxxxx, 00000000> 10=0.bipush          
#   9339> p:a[io]=08c8:1402[10:xx] rp=02<09a4> sp=01<00000000, 00000009> 10=1.bipush          
#   9340> p:a[io]=08c9:1402[09:xx] rp=02<09a4> sp=01<00000000, 00000009> 10=0.bipush          
#   9341> p:a[io]=08ca:1402[9f:xx] rp=02<09a4> sp=02<00000009, 00000009> 10=1.bipush          
#   9342> p:a[io]=08cb:1402[08:xx] rp=02<09a4> sp=02<00000009, 00000009> 9f=0.if_icmpeq       
#   9343> p:a[io]=08cc:1402[d1:xx] rp=02<09a4> sp=01<00000000, 00000000> 9f=1.if_icmpeq       
#   9344> p:a[io]=08d1:1402[xx:02] rp=02<09a4> sp=00<xxxxxxxx, 00000000> 9f=2.if_icmpeq       
#   9345> p:a[io]=08d2:1402[10:xx] rp=02<09a4> sp=00<xxxxxxxx, 00000000> 02=0.iconst_m1       
#   9346> p:a[io]=08d3:1402[08:xx] rp=02<09a4> sp=01<00000000, ffffffff> 10=0.bipush          
#   9347> p:a[io]=08d4:1402[10:xx] rp=02<09a4> sp=02<ffffffff, 00000008> 10=1.bipush          
#   9348> p:a[io]=08d5:1402[09:xx] rp=02<09a4> sp=02<ffffffff, 00000008> 10=0.bipush          
#   9349> p:a[io]=08d6:1402[9f:xx] rp=02<09a4> sp=03<00000008, 00000009> 10=1.bipush          
#   9350> p:a[io]=08d7:1402[08:xx] rp=02<09a4> sp=03<00000008, 00000009> 9f=0.if_icmpeq       
#   9351> p:a[io]=08d8:1402[dd:xx] rp=02<09a4> sp=02<ffffffff, ffffffff> 9f=1.if_icmpeq       
#   9352> p:a[io]=08d9:1402[03:xx] rp=02<09a4> sp=01<00000000, ffffffff> 9f=2.if_icmpeq       
#   9353> p:a[io]=08da:1402[a7:xx] rp=02<09a4> sp=01<00000000, ffffffff> 03=0.iconst_0        
#   9354> p:a[io]=08db:1402[08:xx] rp=02<09a4> sp=02<ffffffff, 00000000> a7=0.goto            
#   9355> p:a[io]=08dc:1402[de:xx] rp=02<09a4> sp=02<ffffffff, 00000000> a7=1.goto            
#   9356> p:a[io]=08de:1402[xx:10] rp=02<09a4> sp=02<ffffffff, 00000000> a7=2.goto            
#   9357> p:a[io]=08df:1402[09:xx] rp=02<09a4> sp=02<ffffffff, 00000000> 10=0.bipush          
#   9358> p:a[io]=08e0:1402[10:xx] rp=02<09a4> sp=03<00000000, 00000009> 10=1.bipush          
#   9359> p:a[io]=08e1:1402[08:xx] rp=02<09a4> sp=03<00000000, 00000009> 10=0.bipush          
#   9360> p:a[io]=08e2:1402[9f:xx] rp=02<09a4> sp=04<00000009, 00000008> 10=1.bipush          
#   9361> p:a[io]=08e3:1402[08:xx] rp=02<09a4> sp=04<00000009, 00000008> 9f=0.if_icmpeq       
#   9362> p:a[io]=08e4:1402[e9:xx] rp=02<09a4> sp=03<00000000, 00000001> 9f=1.if_icmpeq       
#   9363> p:a[io]=08e5:1402[03:xx] rp=02<09a4> sp=02<ffffffff, 00000000> 9f=2.if_icmpeq       
#   9364> p:a[io]=08e6:1402[a7:xx] rp=02<09a4> sp=02<ffffffff, 00000000> 03=0.iconst_0        
#   9365> p:a[io]=08e7:1402[08:xx] rp=02<09a4> sp=03<00000000, 00000000> a7=0.goto            
#   9366> p:a[io]=08e8:1402[ea:xx] rp=02<09a4> sp=03<00000000, 00000000> a7=1.goto            
#   9367> p:a[io]=08ea:1402[xx:10] rp=02<09a4> sp=03<00000000, 00000000> a7=2.goto            
#   9368> p:a[io]=08eb:1402[65:xx] rp=02<09a4> sp=03<00000000, 00000000> 10=0.bipush          
#   9369> p:a[io]=08ec:1402[03:xx] rp=02<09a4> sp=04<00000000, 00000065> 10=1.bipush          
#   9370> p:a[io]=08ed:1402[9b:xx] rp=02<09a4> sp=04<00000000, 00000065> 03=0.iconst_0        
#   9371> p:a[io]=08ee:1402[08:xx] rp=02<09a4> sp=05<00000065, 00000000> 9b=0.iflt            
#   9372> p:a[io]=08ef:1402[f4:xx] rp=02<09a4> sp=05<00000065, 00000000> 9b=1.iflt            
#   9373> p:a[io]=08f0:1402[03:xx] rp=02<09a4> sp=04<00000000, 00000065> 9b=2.iflt            
#   9374> p:a[io]=08f1:1402[a7:xx] rp=02<09a4> sp=04<00000000, 00000065> 03=0.iconst_0        
#   9375> p:a[io]=08f2:1402[08:xx] rp=02<09a4> sp=05<00000065, 00000000> a7=0.goto            
#   9376> p:a[io]=08f3:1402[f5:xx] rp=02<09a4> sp=05<00000065, 00000000> a7=1.goto            
#   9377> p:a[io]=08f5:1402[xx:60] rp=02<09a4> sp=05<00000065, 00000000> a7=2.goto            
#   9378> p:a[io]=08f6:1402[cb:xx] rp=02<09a4> sp=05<00000065, 00000000> 60=0.iadd            
#   9379> p:a[io]=08f7:1402[ff:xx] rp=02<09a4> sp=04<00000000, 00000065> cb=0.ldi             
#   9380> p:a[io]=08f8:1402[ff:xx] rp=02<09a4> sp=05<00000065, 000000ff> cb=1.ldi             
#   9381> p:a[io]=08f9:1402[ff:xx] rp=02<09a4> sp=05<00000065, 0000ffff> cb=2.ldi             
#   9382> p:a[io]=08fa:1402[fe:xx] rp=02<09a4> sp=05<00000065, 00ffffff> cb=3.ldi             
#   9383> p:a[io]=08fb:1402[9b:xx] rp=02<09a4> sp=05<00000065, fffffffe> cb=4.ldi             
#   9384> p:a[io]=08fc:1402[09:xx] rp=02<09a4> sp=05<00000065, fffffffe> 9b=0.iflt            
#   9385> p:a[io]=08fd:1402[02:xx] rp=02<09a4> sp=05<00000065, fffffffe> 9b=1.iflt            
#   9386> p:a[io]=0902:1402[xx:02] rp=02<09a4> sp=04<00000000, 00000065> 9b=2.iflt            
#   9387> p:a[io]=0903:1402[10:xx] rp=02<09a4> sp=04<00000000, 00000065> 02=0.iconst_m1       
#   9388> p:a[io]=0904:1402[04:xx] rp=02<09a4> sp=05<00000065, ffffffff> 10=0.bipush          
#   9389> p:a[io]=0905:1402[60:xx] rp=02<09a4> sp=06<ffffffff, 00000004> 10=1.bipush          
#   9390> p:a[io]=0906:1402[10:xx] rp=02<09a4> sp=06<ffffffff, 00000004> 60=0.iadd            
#   9391> p:a[io]=0907:1402[43:xx] rp=02<09a4> sp=05<00000065, 00000003> 10=0.bipush          
#   9392> p:a[io]=0908:1402[60:xx] rp=02<09a4> sp=06<00000003, 00000043> 10=1.bipush          
#   9393> p:a[io]=0909:1402[10:xx] rp=02<09a4> sp=06<00000003, 00000043> 60=0.iadd            
#   9394> p:a[io]=090a:1402[4f:xx] rp=02<09a4> sp=05<00000065, 00000046> 10=0.bipush          
#   9395> p:a[io]=090b:1402[10:xx] rp=02<09a4> sp=06<00000046, 0000004f> 10=1.bipush          
#   9396> p:a[io]=090c:1402[6f:xx] rp=02<09a4> sp=06<00000046, 0000004f> 10=0.bipush          
#   9397> p:a[io]=090d:1402[82:xx] rp=02<09a4> sp=07<0000004f, 0000006f> 10=1.bipush          
#   9398> p:a[io]=090e:1402[10:xx] rp=02<09a4> sp=07<0000004f, 0000006f> 82=0.ixor            
#   9399> p:a[io]=090f:1402[f0:xx] rp=02<09a4> sp=06<00000046, 00000020> 10=0.bipush          
#   9400> p:a[io]=0910:1402[7e:xx] rp=02<09a4> sp=07<00000020, 000000f0> 10=1.bipush          
#   9401> p:a[io]=0911:1402[10:xx] rp=02<09a4> sp=07<00000020, 000000f0> 7e=0.iand            
#   9402> p:a[io]=0912:1402[4f:xx] rp=02<09a4> sp=06<00000046, 00000020> 10=0.bipush          
#   9403> p:a[io]=0913:1402[80:xx] rp=02<09a4> sp=07<00000020, 0000004f> 10=1.bipush          
#   9404> p:a[io]=0914:1402[10:xx] rp=02<09a4> sp=07<00000020, 0000004f> 80=0.ior             
#   9405> p:a[io]=0915:1402[08:xx] rp=02<09a4> sp=06<00000046, 0000006f> 10=0.bipush          
#   9406> p:a[io]=0916:1402[10:xx] rp=02<09a4> sp=07<0000006f, 00000008> 10=1.bipush          
#   9407> p:a[io]=0917:1402[06:xx] rp=02<09a4> sp=07<0000006f, 00000008> 10=0.bipush          
#   9408> p:a[io]=0918:1402[5f:xx] rp=02<09a4> sp=08<00000008, 00000006> 10=1.bipush          
#   9409> p:a[io]=0919:1402[5c:xx] rp=02<09a4> sp=08<00000008, 00000006> 5f=0.swap            
#   9410> p:a[io]=091a:1402[57:xx] rp=02<09a4> sp=08<00000006, 00000008> 5c=0.dup2            
#   9411> p:a[io]=091a:1402[57:xx] rp=02<09a4> sp=09<00000008, 00000006> 5c=1.dup2            
#   9412> p:a[io]=091a:1402[57:xx] rp=02<09a4> sp=09<00000008, 00000006> 5c=2.dup2            
#   9413> p:a[io]=091a:1402[57:xx] rp=02<09a4> sp=0a<00000006, 00000008> 5c=3.dup2            
#   9414> p:a[io]=091b:1402[82:xx] rp=02<09a4> sp=0a<00000006, 00000008> 57=0.pop             
#   9415> p:a[io]=091c:1402[10:xx] rp=02<09a4> sp=09<00000008, 00000006> 82=0.ixor            
#   9416> p:a[io]=091d:1402[03:xx] rp=02<09a4> sp=08<00000006, 0000000e> 10=0.bipush          
#   9417> p:a[io]=091e:1402[7e:xx] rp=02<09a4> sp=09<0000000e, 00000003> 10=1.bipush          
#   9418> p:a[io]=091f:1402[7e:xx] rp=02<09a4> sp=09<0000000e, 00000003> 7e=0.iand            
#   9419> p:a[io]=0920:1402[10:xx] rp=02<09a4> sp=08<00000006, 00000002> 7e=0.iand            
#   9420> p:a[io]=0921:1402[70:xx] rp=02<09a4> sp=07<0000006f, 00000002> 10=0.bipush          
#   9421> p:a[io]=0922:1402[60:xx] rp=02<09a4> sp=08<00000002, 00000070> 10=1.bipush          
#   9422> p:a[io]=0923:1402[03:xx] rp=02<09a4> sp=08<00000002, 00000070> 60=0.iadd            
#   9423> p:a[io]=0924:1402[99:xx] rp=02<09a4> sp=07<0000006f, 00000072> 03=0.iconst_0        
#   9424> p:a[io]=0925:1402[09:xx] rp=02<09a4> sp=08<00000072, 00000000> 99=0.ifeq            
#   9425> p:a[io]=0926:1402[29:xx] rp=02<09a4> sp=08<00000072, 00000000> 99=1.ifeq            
#   9426> p:a[io]=0929:1402[xx:cb] rp=02<09a4> sp=07<0000006f, 00000072> 99=2.ifeq            
#   9427> p:a[io]=092a:1402[ff:xx] rp=02<09a4> sp=07<0000006f, 00000072> cb=0.ldi             
#   9428> p:a[io]=092b:1402[ff:xx] rp=02<09a4> sp=08<00000072, 000000ff> cb=1.ldi             
#   9429> p:a[io]=092c:1402[ff:xx] rp=02<09a4> sp=08<00000072, 0000ffff> cb=2.ldi             
#   9430> p:a[io]=092d:1402[ff:xx] rp=02<09a4> sp=08<00000072, 00ffffff> cb=3.ldi             
#   9431> p:a[io]=092e:1402[99:xx] rp=02<09a4> sp=08<00000072, ffffffff> cb=4.ldi             
#   9432> p:a[io]=092f:1402[09:xx] rp=02<09a4> sp=08<00000072, ffffffff> 99=0.ifeq            
#   9433> p:a[io]=0930:1402[36:xx] rp=02<09a4> sp=08<00000072, ffffffff> 99=1.ifeq            
#   9434> p:a[io]=0931:1402[10:xx] rp=02<09a4> sp=07<0000006f, 00000072> 99=2.ifeq            
#   9435> p:a[io]=0932:1402[74:xx] rp=02<09a4> sp=07<0000006f, 00000072> 10=0.bipush          
#   9436> p:a[io]=0933:1402[a7:xx] rp=02<09a4> sp=08<00000072, 00000074> 10=1.bipush          
#   9437> p:a[io]=0934:1402[09:xx] rp=02<09a4> sp=08<00000072, 00000074> a7=0.goto            
#   9438> p:a[io]=0935:1402[38:xx] rp=02<09a4> sp=08<00000072, 00000074> a7=1.goto            
#   9439> p:a[io]=0938:1402[xx:10] rp=02<09a4> sp=08<00000072, 00000074> a7=2.goto            
#   9440> p:a[io]=0939:1402[68:xx] rp=02<09a4> sp=08<00000072, 00000074> 10=0.bipush          
#   9441> p:a[io]=093a:1402[10:xx] rp=02<09a4> sp=09<00000074, 00000068> 10=1.bipush          
#   9442> p:a[io]=093b:1402[30:xx] rp=02<09a4> sp=09<00000074, 00000068> 10=0.bipush          
#   9443> p:a[io]=093c:1402[5f:xx] rp=02<09a4> sp=0a<00000068, 00000030> 10=1.bipush          
#   9444> p:a[io]=093d:1402[4f:xx] rp=02<09a4> sp=0a<00000068, 00000030> 5f=0.swap            
#   9445> p:a[io]=093e:1402[10:xx] rp=02<09a4> sp=0a<00000030, 00000068> 4f=0.iastore         
#   9446> p:a[io]=093e:0030[10:xx] rp=02<09a4> sp=09<00000074, 00000068> 4f=1.iastore         
#   9447> p:a[io]=093e:0031[10:xx] rp=02<09a4> sp=09<00000074, 00000068> 4f=2.iastore         
#   9448> p:a[io]=093e:0032[10:xx] rp=02<09a4> sp=09<00000074, 00000068> 4f=3.iastore         
#   9449> p:a[io]=093e:0033[10:xx] rp=02<09a4> sp=09<00000074, 00000068> 4f=4.iastore         
#   9450> p:a[io]=093e:0033[10:xx] rp=02<09a4> sp=08<00000072, 00000074> 4f=5.iastore         
#   9451> p:a[io]=093f:0033[30:xx] rp=02<09a4> sp=08<00000072, 00000074> 10=0.bipush          
#   9452> p:a[io]=0940:0033[2e:xx] rp=02<09a4> sp=09<00000074, 00000030> 10=1.bipush          
#   9453> p:a[io]=0941:0033[10:xx] rp=02<09a4> sp=09<00000074, 00000030> 2e=0.iaload          
#   9454> p:a[io]=0941:0030[00:xx] rp=02<09a4> sp=09<00000074, 00000030> 2e=1.iaload          
#   9455> p:a[io]=0941:0031[00:xx] rp=02<09a4> sp=09<00000074, 00000000> 2e=2.iaload          
#   9456> p:a[io]=0941:0032[00:xx] rp=02<09a4> sp=09<00000074, 00000000> 2e=3.iaload          
#   9457> p:a[io]=0941:0033[68:xx] rp=02<09a4> sp=09<00000074, 00000000> 2e=4.iaload          
#   9458> p:a[io]=0941:0033[10:xx] rp=02<09a4> sp=09<00000074, 00000068> 2e=5.iaload          
#   9459> p:a[io]=0942:0033[4d:xx] rp=02<09a4> sp=09<00000074, 00000068> 10=0.bipush          
#   9460> p:a[io]=0943:0033[cd:xx] rp=02<09a4> sp=0a<00000068, 0000004d> 10=1.bipush          
#   9461> p:a[io]=0944:0033[ce:xx] rp=02<09a4> sp=0a<00000068, 0000004d> cd=0.pushr           
#   9462> p:a[io]=0945:0033[cc:xx] rp=03<004d> sp=09<00000074, 00000068> ce=0.dupr            
#   9463> p:a[io]=0946:0033[7e:xx] rp=03<004d> sp=0a<00000068, 0000004d> cc=0.popr            
#   9464> p:a[io]=0947:0033[10:xx] rp=02<09a4> sp=0b<0000004d, 0000004d> 7e=0.iand            
#   9465> p:a[io]=0948:0033[61:xx] rp=02<09a4> sp=0a<00000068, 0000004d> 10=0.bipush          
#   9466> p:a[io]=0949:0033[10:xx] rp=02<09a4> sp=0b<0000004d, 00000061> 10=1.bipush          
#   9467> p:a[io]=094a:0033[0a:xx] rp=02<09a4> sp=0b<0000004d, 00000061> 10=0.bipush          
#   9468> p:a[io]=094b:0033[cd:xx] rp=02<09a4> sp=0c<00000061, 0000000a> 10=1.bipush          
#   9469> p:a[io]=094c:0033[04:xx] rp=02<09a4> sp=0c<00000061, 0000000a> cd=0.pushr           
#   9470> p:a[io]=094d:0033[60:xx] rp=03<000a> sp=0b<0000004d, 00000061> 04=0.iconst_1        
#   9471> p:a[io]=094e:0033[ca:xx] rp=03<000a> sp=0c<00000061, 00000001> 60=0.iadd            
#   9472> p:a[io]=094f:0033[09:xx] rp=03<000a> sp=0b<0000004d, 00000062> ca=0.donext          
#   9473> p:a[io]=0950:0033[4c:xx] rp=03<000a> sp=0b<0000004d, 00000062> ca=1.donext          
#   9474> p:a[io]=094c:0033[xx:04] rp=03<0009> sp=0b<0000004d, 00000062> ca=2.donext          
#   9475> p:a[io]=094d:0033[60:xx] rp=03<0009> sp=0b<0000004d, 00000062> 04=0.iconst_1        
#   9476> p:a[io]=094e:0033[ca:xx] rp=03<0009> sp=0c<00000062, 00000001> 60=0.iadd            
#   9477> p:a[io]=094f:0033[09:xx] rp=03<0009> sp=0b<0000004d, 00000063> ca=0.donext          
#   9478> p:a[io]=0950:0033[4c:xx] rp=03<0009> sp=0b<0000004d, 00000063> ca=1.donext          
#   9479> p:a[io]=094c:0033[xx:04] rp=03<0008> sp=0b<0000004d, 00000063> ca=2.donext          
#   9480> p:a[io]=094d:0033[60:xx] rp=03<0008> sp=0b<0000004d, 00000063> 04=0.iconst_1        
#   9481> p:a[io]=094e:0033[ca:xx] rp=03<0008> sp=0c<00000063, 00000001> 60=0.iadd            
#   9482> p:a[io]=094f:0033[09:xx] rp=03<0008> sp=0b<0000004d, 00000064> ca=0.donext          
#   9483> p:a[io]=0950:0033[4c:xx] rp=03<0008> sp=0b<0000004d, 00000064> ca=1.donext          
#   9484> p:a[io]=094c:0033[xx:04] rp=03<0007> sp=0b<0000004d, 00000064> ca=2.donext          
#   9485> p:a[io]=094d:0033[60:xx] rp=03<0007> sp=0b<0000004d, 00000064> 04=0.iconst_1        
#   9486> p:a[io]=094e:0033[ca:xx] rp=03<0007> sp=0c<00000064, 00000001> 60=0.iadd            
#   9487> p:a[io]=094f:0033[09:xx] rp=03<0007> sp=0b<0000004d, 00000065> ca=0.donext          
#   9488> p:a[io]=0950:0033[4c:xx] rp=03<0007> sp=0b<0000004d, 00000065> ca=1.donext          
#   9489> p:a[io]=094c:0033[xx:04] rp=03<0006> sp=0b<0000004d, 00000065> ca=2.donext          
#   9490> p:a[io]=094d:0033[60:xx] rp=03<0006> sp=0b<0000004d, 00000065> 04=0.iconst_1        
#   9491> p:a[io]=094e:0033[ca:xx] rp=03<0006> sp=0c<00000065, 00000001> 60=0.iadd            
#   9492> p:a[io]=094f:0033[09:xx] rp=03<0006> sp=0b<0000004d, 00000066> ca=0.donext          
#   9493> p:a[io]=0950:0033[4c:xx] rp=03<0006> sp=0b<0000004d, 00000066> ca=1.donext          
#   9494> p:a[io]=094c:0033[xx:04] rp=03<0005> sp=0b<0000004d, 00000066> ca=2.donext          
#   9495> p:a[io]=094d:0033[60:xx] rp=03<0005> sp=0b<0000004d, 00000066> 04=0.iconst_1        
#   9496> p:a[io]=094e:0033[ca:xx] rp=03<0005> sp=0c<00000066, 00000001> 60=0.iadd            
#   9497> p:a[io]=094f:0033[09:xx] rp=03<0005> sp=0b<0000004d, 00000067> ca=0.donext          
#   9498> p:a[io]=0950:0033[4c:xx] rp=03<0005> sp=0b<0000004d, 00000067> ca=1.donext          
#   9499> p:a[io]=094c:0033[xx:04] rp=03<0004> sp=0b<0000004d, 00000067> ca=2.donext          
#   9500> p:a[io]=094d:0033[60:xx] rp=03<0004> sp=0b<0000004d, 00000067> 04=0.iconst_1        
#   9501> p:a[io]=094e:0033[ca:xx] rp=03<0004> sp=0c<00000067, 00000001> 60=0.iadd            
