docs/eJ32_trace_20231223.txt
# do /home/gnii/devel/fpga/eJsv32/vsim/vsim.mdo
# Loading project vsim
# Model Technology ModelSim - Lattice FPGA Edition vlog 2020.3 Compiler 2021.02 Feb 11 2021
# Start time: 09:05:11 on Dec 24,2023
# vlog -reportprogress 300 -sv -mfcu "+incdir+/home/gnii/devel/fpga/eJsv32/source" "+incdir+/home/gnii/devel/fpga/eJsv32/test" -work work /home/gnii/devel/fpga/eJsv32/source/alu_ext.sv /home/gnii/devel/fpga/eJsv32/source/eJ32.sv /home/gnii/devel/fpga/eJsv32/test/dict_setup.sv /home/gnii/devel/fpga/eJsv32/source/spram.sv /home/gnii/devel/fpga/eJsv32/test/outer_tb.sv /home/gnii/devel/fpga/eJsv32/source/eJ32_if.sv 
# -- Compiling module shifter
# -- Compiling module ushifter
# -- Compiling module mult
# -- Compiling module div_int
# -- Compiling package ej32_pkg
# -- Compiling interface ej32_ctl
# -- Importing package ej32_pkg
# -- Compiling interface mb32_io
# -- Compiling interface mb8_io
# -- Compiling interface ss_io
# -- Compiling module eJ32
# -- Compiling module dict_setup
# -- Compiling module spram32_32k
# -- Compiling module spram8_128k
# -- Compiling package alu_ext_sv_unit
# -- Importing package ej32_pkg
# -- Compiling module outer_tb
# 
# Top level modules:
# 	outer_tb
# End time: 09:05:11 on Dec 24,2023, Elapsed time: 0:00:00
# Errors: 0, Warnings: 0
# vsim -L work -L pmi_work -L ovi_ice40up outer_tb 
# Start time: 09:05:11 on Dec 24,2023
# //  ModelSim - Lattice FPGA Edition 2020.3 Feb 11 2021 Linux 5.15.0-91-generic
# //
# //  Copyright 1991-2021 Mentor Graphics Corporation
# //  All Rights Reserved.
# //
# //  ModelSim - Lattice FPGA Edition and its associated documentation contain trade
# //  secrets and commercial or financial information that are the property of
# //  Mentor Graphics Corporation and are privileged, confidential,
# //  and exempt from disclosure under the Freedom of Information Act,
# //  5 U.S.C. Section 552. Furthermore, this information
# //  is prohibited from disclosure under the Trade Secrets Act,
# //  18 U.S.C. Section 1905.
# //
# Loading sv_std.std
# Loading work.ej32_pkg
# Loading work.alu_ext_sv_unit
# Loading work.outer_tb
# Loading work.ej32_ctl
# Loading work.mb8_io
# Loading work.spram8_128k
# Loading work.mb32_io
# Loading work.spram32_32k
# Loading ovi_ice40up.SP256K
# Loading ovi_ice40up.VLO
# Loading ovi_ice40up.VFB_B
# Loading ovi_ice40up.SPRAM256KA
# Loading ovi_ice40up.sadslspk4s1p16384x16m16b4w1c0p1d0t0
# Loading ovi_ice40up.generic_behav_sadslspk4s1p16384x16m16b4w1c0p1d0t0
# Loading work.dict_setup
# Loading work.eJ32
# Loading work.mult
# Loading work.div_int
# Loading work.shifter
# Loading work.ushifter
# .main_pane.wave.interior.cs.body.pw.wf
# ROM fed from file          0-2147483645
# ROM ok
# fill memory from ROM 0000-1400
# memory filled, context=0d4d
#  0d51: dup
#  0d44: count
#  0d34: 2@
#  0d25: 2!
#  0d1d: -rot
#  0d11: rot
#  0d03: +!
#  0cfb: bl
#  0cf3: cell+
#  0ce8: cell-
#  0cdd: 2+
#  0cd5: 2-
#  0ccd: 1+
#  0cc5: 1-
#  0cbe: negate
#  0cb2: not
#  0caa: xor
#  0ca2: and
#  0c9a: or
#  0c93: mod
#  0c8b: /
#  0c85: *
#  0c7f: -
#  0c79: +
#  0c73: 2dup
#  0c69: over
#  0c60: 2drop
#  0c56: drop
#  0c4d: swap
#  0c44: w@
#  0c3c: w!
#  0c35: c@
#  0c2d: c!
#  0c26: @
#  0c1f: !
#  0c1a: exit
#  0c07: immediate
# *0bf4: (
# *0be7: .(
# *0bdc: >r
# *0bd1: r@
# *0bc6: r>
#  0ba6: constant
#  0b8b: variable
#  0b68: create
#  0b55: code
#  0b42: does
#  0b39: dovar
#  0b2e: docon
# *0b15: ."
# *0aff: $"
# *0ae9: abort"
#  0ad1: $,"
# *0ac6: while
# *0ab6: else
# *0aa6: aft
# *0a99: repeat
# *0a82: ahead
# *0a6c: if
# *0a5e: again
# *0a4d: until
# *0a3c: next
# *0a2c: for
# *0a1f: then
# *0a14: begin
#  0a03: abs
#  09f7: ?dup
#  09e7: <
#  09da: >
#  09cd: =
#  09c0: 0<
#  09a1: cold
#  08c0: diagnose
#  08a0: case
#  087e: words
#  0818: see
#  0802: id
#  07e0: >name
#  07b5: dump
#  0793: dm+
#  0780: '
#  0772: :
# *0762: ;
#  0756: overt
#  0726: $,n
#  0704: ?unique
#  06ee: compile
#  06cd: error
#  06ae: abort"|
#  0638: quit
#  0606: ok
#  05ad: literal
#  059a: compil
#  0585: allot
#  0569: c,
#  0550: w,
#  0537: ,
#  052d: ]
# *0523: [
#  04fc: name?
#  04ac: same?
#  0499: name>
#  0488: word
#  0476: token
#  040d: parse
#  0399: number?
#  0346: digit?
#  0338: ?
#  032a: .
#  0317: .r
#  0305: ."|
#  02fb: $"|
#  02e7: do$
#  02d6: cr
#  02bf: type
#  02ad: >char
#  029a: spaces
#  028b: space
#  027c: decimal
#  026b: hex
#  024d: str
#  023c: #>
#  0226: sign
#  0214: #s
#  0205: #
#  01f4: hold
#  01e5: <#
#  01d8: extract
#  01ba: digit
#  01a2: fill
#  0187: cmove
#  0178: pad
#  016e: here
#  0165: execute
#  0156: */
#  014b: /mod
#  0134: min
#  011f: max
#  0117: emit
#  010e: key
#  0106: bye
# 
# dump tib: 0x1000
# 
# 1000: 31323334 35203637 3839300d 0a776f72  12345 67890..wor
# 1010: 64730d0a 3a207465 73743120 31203220  ds..: test1 1 2 
# 1020: 33203b0d 0a746573 74310d0a 3a207465  3 ;..test1..: te
# 1030: 73743220 69662031 20656c73 65203220  st2 if 1 else 2 
# 1040: 7468656e 202e203b 0d0a3020 74657374  then . ;..0 test
# 1050: 320d0a31 20746573 74320d0a 3a207465  2..1 test2..: te
# 1060: 73743320 31302066 6f722072 40202e20  st3 10 for r@ . 
# 1070: 6e657874 203b0d0a 74657374 330d0a3a  next ;..test3..:
# 1080: 20746573 74342031 3020666f 72206166   test4 10 for af
# 1090: 74207240 202e2074 68656e20 6e657874  t r@ . then next
# 10a0: 203b0d0a 74657374 340d0a3a 20746573   ;..test4..: tes
# 10b0: 74352031 30206265 67696e20 64757020  t5 10 begin dup 
# 10c0: 2e206475 70207768 696c6520 31202d20  . dup while 1 - 
# 10d0: 72657065 61742064 726f7020 3b0d0a74  repeat drop ;..t
# 10e0: 65737435 0d0a3a20 74657374 36206372  est5..: test6 cr
# 10f0: 202e2220 68656c6c 6f2c2077 6f726c64   ." hello, world
# 1100: 2122203b 0d0a7465 7374360d 0a627965  !" ;..test6..bye
# 1110: 0d0a0000 00000000 00000000 00000000  ................
# 1120: 00000000 00000000 00000000 00000000  ................
# 
#   8840> p:a[io]=0000:0000[b6:00] rp=00<xxxx> sp=00<xxxxxxxx, 00000000> xx=0.                
#   8841> p:a[io]=0001:0000[09:00] rp=00<xxxx> sp=00<xxxxxxxx, 00000000> b6=0.invokevirtual   
#   8842> p:a[io]=0002:0009[a1:00] rp=01<0003> sp=00<xxxxxxxx, 00000000> b6=1.invokevirtual   
#   8843> p:a[io]=09a1:0000[b6:00] rp=01<0003> sp=00<xxxxxxxx, 00000000> b6=2.invokevirtual      :: cold
#   8844> p:a[io]=09a2:0000[08:00] rp=01<0003> sp=00<xxxxxxxx, 00000000> b6=0.invokevirtual   
#   8845> p:a[io]=09a3:0008[c0:00] rp=02<09a4> sp=00<xxxxxxxx, 00000000> b6=1.invokevirtual   
#   8846> p:a[io]=08c0:0000[d0:00] rp=02<09a4> sp=00<xxxxxxxx, 00000000> b6=2.invokevirtual        :: diagnose
#   8847> p:a[io]=08c1:0000[d1:00] rp=02<09a4> sp=00<xxxxxxxx, 00000000> d0=0.get             
#   8848> p:a[io]=08c1:1000[31:00] rp=02<09a4> sp=01<00000000, 00000000> d0=1.get             
#   8849> p:a[io]=08c1:1000[d1:31] rp=02<09a4> sp=01<00000000, 00000031> d0=2.get             
#   8850> p:a[io]=08c2:1000[d0:31] rp=02<09a4> sp=01<00000000, 00000031> d1=0.put             
#   8851> p:a[io]=08c2:1400[d0:31] rp=02<09a4> sp=01<00000000, 00000031> d1=1.put             
#   8852> p:a[io]=08c3:1400[d1:00] rp=02<09a4> sp=00<xxxxxxxx, 00000000> d0=0.get             
#   8853> p:a[io]=08c3:1001[32:00] rp=02<09a4> sp=01<00000000, 00000000> d0=1.get             
#   8854> p:a[io]=08c3:1001[d1:32] rp=02<09a4> sp=01<00000000, 00000032> d0=2.get             
#   8855> p:a[io]=08c4:1001[d0:32] rp=02<09a4> sp=01<00000000, 00000032> d1=0.put             
#   8856> p:a[io]=08c4:1401[d0:32] rp=02<09a4> sp=01<00000000, 00000032> d1=1.put             
#   8857> p:a[io]=08c5:1401[d1:00] rp=02<09a4> sp=00<xxxxxxxx, 00000000> d0=0.get             
#   8858> p:a[io]=08c5:1002[33:00] rp=02<09a4> sp=01<00000000, 00000000> d0=1.get             
#   8859> p:a[io]=08c5:1002[d1:33] rp=02<09a4> sp=01<00000000, 00000033> d0=2.get             
#   8860> p:a[io]=08c6:1002[10:33] rp=02<09a4> sp=01<00000000, 00000033> d1=0.put             
#   8861> p:a[io]=08c6:1402[10:33] rp=02<09a4> sp=01<00000000, 00000033> d1=1.put             
#   8862> p:a[io]=08c7:1402[09:00] rp=02<09a4> sp=00<xxxxxxxx, 00000000> 10=0.bipush          
#   8863> p:a[io]=08c8:1402[10:09] rp=02<09a4> sp=01<00000000, 00000009> 10=1.bipush          
#   8864> p:a[io]=08c9:1402[09:09] rp=02<09a4> sp=01<00000000, 00000009> 10=0.bipush          
#   8865> p:a[io]=08ca:1402[9f:09] rp=02<09a4> sp=02<00000009, 00000009> 10=1.bipush          
#   8866> p:a[io]=08cb:1402[08:09] rp=02<09a4> sp=02<00000009, 00000009> 9f=0.if_icmpeq       
#   8867> p:a[io]=08cc:0008[d1:00] rp=02<09a4> sp=01<00000000, 00000000> 9f=1.if_icmpeq       
#   8868> p:a[io]=08d1:0000[02:00] rp=02<09a4> sp=00<xxxxxxxx, 00000000> 9f=2.if_icmpeq       
#   8869> p:a[io]=08d2:0000[10:00] rp=02<09a4> sp=00<xxxxxxxx, 00000000> 02=0.iconst_m1       
#   8870> p:a[io]=08d3:0000[08:ff] rp=02<09a4> sp=01<00000000, ffffffff> 10=0.bipush          
#   8871> p:a[io]=08d4:0000[10:08] rp=02<09a4> sp=02<ffffffff, 00000008> 10=1.bipush          
#   8872> p:a[io]=08d5:0000[09:08] rp=02<09a4> sp=02<ffffffff, 00000008> 10=0.bipush          
#   8873> p:a[io]=08d6:0000[9f:09] rp=02<09a4> sp=03<00000008, 00000009> 10=1.bipush          
#   8874> p:a[io]=08d7:0000[08:09] rp=02<09a4> sp=03<00000008, 00000009> 9f=0.if_icmpeq       
#   8875> p:a[io]=08d8:0008[dd:ff] rp=02<09a4> sp=02<ffffffff, ffffffff> 9f=1.if_icmpeq       
#   8876> p:a[io]=08d9:0008[03:ff] rp=02<09a4> sp=01<00000000, ffffffff> 9f=2.if_icmpeq       
#   8877> p:a[io]=08da:0008[a7:ff] rp=02<09a4> sp=01<00000000, ffffffff> 03=0.iconst_0        
#   8878> p:a[io]=08db:0008[08:00] rp=02<09a4> sp=02<ffffffff, 00000000> a7=0.goto            
#   8879> p:a[io]=08dc:0008[de:00] rp=02<09a4> sp=02<ffffffff, 00000000> a7=1.goto            
#   8880> p:a[io]=08de:0000[10:00] rp=02<09a4> sp=02<ffffffff, 00000000> a7=2.goto            
#   8881> p:a[io]=08df:0000[09:00] rp=02<09a4> sp=02<ffffffff, 00000000> 10=0.bipush          
#   8882> p:a[io]=08e0:0000[10:09] rp=02<09a4> sp=03<00000000, 00000009> 10=1.bipush          
#   8883> p:a[io]=08e1:0000[08:09] rp=02<09a4> sp=03<00000000, 00000009> 10=0.bipush          
#   8884> p:a[io]=08e2:0000[9f:08] rp=02<09a4> sp=04<00000009, 00000008> 10=1.bipush          
#   8885> p:a[io]=08e3:0000[08:08] rp=02<09a4> sp=04<00000009, 00000008> 9f=0.if_icmpeq       
#   8886> p:a[io]=08e4:0008[e9:01] rp=02<09a4> sp=03<00000000, 00000001> 9f=1.if_icmpeq       
#   8887> p:a[io]=08e5:0008[03:00] rp=02<09a4> sp=02<ffffffff, 00000000> 9f=2.if_icmpeq       
#   8888> p:a[io]=08e6:0008[a7:00] rp=02<09a4> sp=02<ffffffff, 00000000> 03=0.iconst_0        
#   8889> p:a[io]=08e7:0008[08:00] rp=02<09a4> sp=03<00000000, 00000000> a7=0.goto            
#   8890> p:a[io]=08e8:0008[ea:00] rp=02<09a4> sp=03<00000000, 00000000> a7=1.goto            
#   8891> p:a[io]=08ea:0000[10:00] rp=02<09a4> sp=03<00000000, 00000000> a7=2.goto            
#   8892> p:a[io]=08eb:0000[65:00] rp=02<09a4> sp=03<00000000, 00000000> 10=0.bipush          
#   8893> p:a[io]=08ec:0000[03:65] rp=02<09a4> sp=04<00000000, 00000065> 10=1.bipush          
#   8894> p:a[io]=08ed:0000[9b:65] rp=02<09a4> sp=04<00000000, 00000065> 03=0.iconst_0        
#   8895> p:a[io]=08ee:0000[08:00] rp=02<09a4> sp=05<00000065, 00000000> 9b=0.iflt            
#   8896> p:a[io]=08ef:0008[f4:00] rp=02<09a4> sp=05<00000065, 00000000> 9b=1.iflt            
#   8897> p:a[io]=08f0:0008[03:65] rp=02<09a4> sp=04<00000000, 00000065> 9b=2.iflt            
#   8898> p:a[io]=08f1:0008[a7:65] rp=02<09a4> sp=04<00000000, 00000065> 03=0.iconst_0        
#   8899> p:a[io]=08f2:0008[08:00] rp=02<09a4> sp=05<00000065, 00000000> a7=0.goto            
#   8900> p:a[io]=08f3:0008[f5:00] rp=02<09a4> sp=05<00000065, 00000000> a7=1.goto            
#   8901> p:a[io]=08f5:0000[60:00] rp=02<09a4> sp=05<00000065, 00000000> a7=2.goto            
#   8902> p:a[io]=08f6:0000[cb:00] rp=02<09a4> sp=05<00000065, 00000000> 60=0.iadd            
#   8903> p:a[io]=08f7:0000[ff:65] rp=02<09a4> sp=04<00000000, 00000065> cb=0.ldi             
#   8904> p:a[io]=08f8:0000[ff:ff] rp=02<09a4> sp=05<00000065, 000000ff> cb=1.ldi             
#   8905> p:a[io]=08f9:0000[ff:ff] rp=02<09a4> sp=05<00000065, 0000ffff> cb=2.ldi             
#   8906> p:a[io]=08fa:0000[fe:ff] rp=02<09a4> sp=05<00000065, 00ffffff> cb=3.ldi             
#   8907> p:a[io]=08fb:0000[9b:fe] rp=02<09a4> sp=05<00000065, fffffffe> cb=4.ldi             
#   8908> p:a[io]=08fc:0000[09:fe] rp=02<09a4> sp=05<00000065, fffffffe> 9b=0.iflt            
#   8909> p:a[io]=08fd:0009[02:fe] rp=02<09a4> sp=05<00000065, fffffffe> 9b=1.iflt            
#   8910> p:a[io]=0902:0000[02:65] rp=02<09a4> sp=04<00000000, 00000065> 9b=2.iflt            
#   8911> p:a[io]=0903:0000[10:65] rp=02<09a4> sp=04<00000000, 00000065> 02=0.iconst_m1       
#   8912> p:a[io]=0904:0000[04:ff] rp=02<09a4> sp=05<00000065, ffffffff> 10=0.bipush          
#   8913> p:a[io]=0905:0000[60:04] rp=02<09a4> sp=06<ffffffff, 00000004> 10=1.bipush          
#   8914> p:a[io]=0906:0000[10:04] rp=02<09a4> sp=06<ffffffff, 00000004> 60=0.iadd            
#   8915> p:a[io]=0907:0000[43:03] rp=02<09a4> sp=05<00000065, 00000003> 10=0.bipush          
#   8916> p:a[io]=0908:0000[60:43] rp=02<09a4> sp=06<00000003, 00000043> 10=1.bipush          
#   8917> p:a[io]=0909:0000[10:43] rp=02<09a4> sp=06<00000003, 00000043> 60=0.iadd            
#   8918> p:a[io]=090a:0000[4f:46] rp=02<09a4> sp=05<00000065, 00000046> 10=0.bipush          
#   8919> p:a[io]=090b:0000[10:4f] rp=02<09a4> sp=06<00000046, 0000004f> 10=1.bipush          
#   8920> p:a[io]=090c:0000[6f:4f] rp=02<09a4> sp=06<00000046, 0000004f> 10=0.bipush          
#   8921> p:a[io]=090d:0000[82:6f] rp=02<09a4> sp=07<0000004f, 0000006f> 10=1.bipush          
#   8922> p:a[io]=090e:0000[10:6f] rp=02<09a4> sp=07<0000004f, 0000006f> 82=0.ixor            
#   8923> p:a[io]=090f:0000[f0:20] rp=02<09a4> sp=06<00000046, 00000020> 10=0.bipush          
#   8924> p:a[io]=0910:0000[7e:f0] rp=02<09a4> sp=07<00000020, 000000f0> 10=1.bipush          
#   8925> p:a[io]=0911:0000[10:f0] rp=02<09a4> sp=07<00000020, 000000f0> 7e=0.iand            
#   8926> p:a[io]=0912:0000[4f:20] rp=02<09a4> sp=06<00000046, 00000020> 10=0.bipush          
#   8927> p:a[io]=0913:0000[80:4f] rp=02<09a4> sp=07<00000020, 0000004f> 10=1.bipush          
#   8928> p:a[io]=0914:0000[10:4f] rp=02<09a4> sp=07<00000020, 0000004f> 80=0.ior             
#   8929> p:a[io]=0915:0000[08:6f] rp=02<09a4> sp=06<00000046, 0000006f> 10=0.bipush          
#   8930> p:a[io]=0916:0000[10:08] rp=02<09a4> sp=07<0000006f, 00000008> 10=1.bipush          
#   8931> p:a[io]=0917:0000[06:08] rp=02<09a4> sp=07<0000006f, 00000008> 10=0.bipush          
#   8932> p:a[io]=0918:0000[5f:06] rp=02<09a4> sp=08<00000008, 00000006> 10=1.bipush          
#   8933> p:a[io]=0919:0000[5c:06] rp=02<09a4> sp=08<00000008, 00000006> 5f=0.swap            
#   8934> p:a[io]=091a:0000[57:08] rp=02<09a4> sp=08<00000006, 00000008> 5c=0.dup2            
#   8935> p:a[io]=091a:0000[57:06] rp=02<09a4> sp=09<00000008, 00000006> 5c=1.dup2            
#   8936> p:a[io]=091a:0000[57:06] rp=02<09a4> sp=09<00000008, 00000006> 5c=2.dup2            
#   8937> p:a[io]=091a:0000[57:08] rp=02<09a4> sp=0a<00000006, 00000008> 5c=3.dup2            
#   8938> p:a[io]=091b:0000[82:08] rp=02<09a4> sp=0a<00000006, 00000008> 57=0.pop             
#   8939> p:a[io]=091c:0000[10:06] rp=02<09a4> sp=09<00000008, 00000006> 82=0.ixor            
#   8940> p:a[io]=091d:0000[03:0e] rp=02<09a4> sp=08<00000006, 0000000e> 10=0.bipush          
#   8941> p:a[io]=091e:0000[7e:03] rp=02<09a4> sp=09<0000000e, 00000003> 10=1.bipush          
#   8942> p:a[io]=091f:0000[7e:03] rp=02<09a4> sp=09<0000000e, 00000003> 7e=0.iand            
#   8943> p:a[io]=0920:0000[10:02] rp=02<09a4> sp=08<00000006, 00000002> 7e=0.iand            
#   8944> p:a[io]=0921:0000[70:02] rp=02<09a4> sp=07<0000006f, 00000002> 10=0.bipush          
#   8945> p:a[io]=0922:0000[60:70] rp=02<09a4> sp=08<00000002, 00000070> 10=1.bipush          
#   8946> p:a[io]=0923:0000[03:70] rp=02<09a4> sp=08<00000002, 00000070> 60=0.iadd            
#   8947> p:a[io]=0924:0000[99:72] rp=02<09a4> sp=07<0000006f, 00000072> 03=0.iconst_0        
#   8948> p:a[io]=0925:0000[09:00] rp=02<09a4> sp=08<00000072, 00000000> 99=0.ifeq            
#   8949> p:a[io]=0926:0009[29:00] rp=02<09a4> sp=08<00000072, 00000000> 99=1.ifeq            
#   8950> p:a[io]=0929:0000[cb:72] rp=02<09a4> sp=07<0000006f, 00000072> 99=2.ifeq            
#   8951> p:a[io]=092a:0000[ff:72] rp=02<09a4> sp=07<0000006f, 00000072> cb=0.ldi             
#   8952> p:a[io]=092b:0000[ff:ff] rp=02<09a4> sp=08<00000072, 000000ff> cb=1.ldi             
#   8953> p:a[io]=092c:0000[ff:ff] rp=02<09a4> sp=08<00000072, 0000ffff> cb=2.ldi             
#   8954> p:a[io]=092d:0000[ff:ff] rp=02<09a4> sp=08<00000072, 00ffffff> cb=3.ldi             
#   8955> p:a[io]=092e:0000[99:ff] rp=02<09a4> sp=08<00000072, ffffffff> cb=4.ldi             
#   8956> p:a[io]=092f:0000[09:ff] rp=02<09a4> sp=08<00000072, ffffffff> 99=0.ifeq            
#   8957> p:a[io]=0930:0009[36:ff] rp=02<09a4> sp=08<00000072, ffffffff> 99=1.ifeq            
#   8958> p:a[io]=0931:0009[10:72] rp=02<09a4> sp=07<0000006f, 00000072> 99=2.ifeq            
#   8959> p:a[io]=0932:0009[74:72] rp=02<09a4> sp=07<0000006f, 00000072> 10=0.bipush          
#   8960> p:a[io]=0933:0009[a7:74] rp=02<09a4> sp=08<00000072, 00000074> 10=1.bipush          
#   8961> p:a[io]=0934:0009[09:74] rp=02<09a4> sp=08<00000072, 00000074> a7=0.goto            
#   8962> p:a[io]=0935:0009[38:74] rp=02<09a4> sp=08<00000072, 00000074> a7=1.goto            
#   8963> p:a[io]=0938:0000[10:74] rp=02<09a4> sp=08<00000072, 00000074> a7=2.goto            
#   8964> p:a[io]=0939:0000[68:74] rp=02<09a4> sp=08<00000072, 00000074> 10=0.bipush          
#   8965> p:a[io]=093a:0000[10:68] rp=02<09a4> sp=09<00000074, 00000068> 10=1.bipush          
#   8966> p:a[io]=093b:0000[30:68] rp=02<09a4> sp=09<00000074, 00000068> 10=0.bipush          
#   8967> p:a[io]=093c:0000[5f:30] rp=02<09a4> sp=0a<00000068, 00000030> 10=1.bipush          
#   8968> p:a[io]=093d:0000[4f:30] rp=02<09a4> sp=0a<00000068, 00000030> 5f=0.swap            
#   8969> p:a[io]=093e:0000[10:68] rp=02<09a4> sp=0a<00000030, 00000068> 4f=0.iastore         
#   8970> p:a[io]=093e:0030[10:00] rp=02<09a4> sp=09<00000074, 00000068> 4f=1.iastore         
#   8971> p:a[io]=093e:0031[10:00] rp=02<09a4> sp=09<00000074, 00000068> 4f=2.iastore         
#   8972> p:a[io]=093e:0032[10:00] rp=02<09a4> sp=09<00000074, 00000068> 4f=3.iastore         
#   8973> p:a[io]=093e:0033[10:68] rp=02<09a4> sp=09<00000074, 00000068> 4f=4.iastore         
#   8974> p:a[io]=093e:0033[10:74] rp=02<09a4> sp=08<00000072, 00000074> 4f=5.iastore         
#   8975> p:a[io]=093f:0033[30:74] rp=02<09a4> sp=08<00000072, 00000074> 10=0.bipush          
#   8976> p:a[io]=0940:0033[2e:30] rp=02<09a4> sp=09<00000074, 00000030> 10=1.bipush          
#   8977> p:a[io]=0941:0033[10:30] rp=02<09a4> sp=09<00000074, 00000030> 2e=0.iaload          
#   8978> p:a[io]=0941:0030[00:30] rp=02<09a4> sp=09<00000074, 00000030> 2e=1.iaload          
#   8979> p:a[io]=0941:0031[00:00] rp=02<09a4> sp=09<00000074, 00000000> 2e=2.iaload          
#   8980> p:a[io]=0941:0032[00:00] rp=02<09a4> sp=09<00000074, 00000000> 2e=3.iaload          
#   8981> p:a[io]=0941:0033[68:00] rp=02<09a4> sp=09<00000074, 00000000> 2e=4.iaload          
#   8982> p:a[io]=0941:0033[10:68] rp=02<09a4> sp=09<00000074, 00000068> 2e=5.iaload          
#   8983> p:a[io]=0942:0033[4d:68] rp=02<09a4> sp=09<00000074, 00000068> 10=0.bipush          
#   8984> p:a[io]=0943:0033[cd:4d] rp=02<09a4> sp=0a<00000068, 0000004d> 10=1.bipush          
#   8985> p:a[io]=0944:0033[ce:4d] rp=02<09a4> sp=0a<00000068, 0000004d> cd=0.pushr           
#   8986> p:a[io]=0945:0033[cc:68] rp=03<004d> sp=09<00000074, 00000068> ce=0.dupr            
#   8987> p:a[io]=0946:0033[7e:4d] rp=03<004d> sp=0a<00000068, 0000004d> cc=0.popr            
#   8988> p:a[io]=0947:0033[10:4d] rp=02<09a4> sp=0b<0000004d, 0000004d> 7e=0.iand            
#   8989> p:a[io]=0948:0033[61:4d] rp=02<09a4> sp=0a<00000068, 0000004d> 10=0.bipush          
#   8990> p:a[io]=0949:0033[10:61] rp=02<09a4> sp=0b<0000004d, 00000061> 10=1.bipush          
#   8991> p:a[io]=094a:0033[0a:61] rp=02<09a4> sp=0b<0000004d, 00000061> 10=0.bipush          
#   8992> p:a[io]=094b:0033[cd:0a] rp=02<09a4> sp=0c<00000061, 0000000a> 10=1.bipush          
#   8993> p:a[io]=094c:0033[04:0a] rp=02<09a4> sp=0c<00000061, 0000000a> cd=0.pushr           
#   8994> p:a[io]=094d:0033[60:61] rp=03<000a> sp=0b<0000004d, 00000061> 04=0.iconst_1        
#   8995> p:a[io]=094e:0033[ca:01] rp=03<000a> sp=0c<00000061, 00000001> 60=0.iadd            
#   8996> p:a[io]=094f:0033[09:62] rp=03<000a> sp=0b<0000004d, 00000062> ca=0.donext          
#   8997> p:a[io]=0950:0009[4c:62] rp=03<000a> sp=0b<0000004d, 00000062> ca=1.donext          
#   8998> p:a[io]=094c:0000[04:62] rp=03<0009> sp=0b<0000004d, 00000062> ca=2.donext          
#   8999> p:a[io]=094d:0000[60:62] rp=03<0009> sp=0b<0000004d, 00000062> 04=0.iconst_1        
#   9000> p:a[io]=094e:0000[ca:01] rp=03<0009> sp=0c<00000062, 00000001> 60=0.iadd            
#   9001> p:a[io]=094f:0000[09:63] rp=03<0009> sp=0b<0000004d, 00000063> ca=0.donext          
#   9002> p:a[io]=0950:0009[4c:63] rp=03<0009> sp=0b<0000004d, 00000063> ca=1.donext          
#   9003> p:a[io]=094c:0000[04:63] rp=03<0008> sp=0b<0000004d, 00000063> ca=2.donext          
#   9004> p:a[io]=094d:0000[60:63] rp=03<0008> sp=0b<0000004d, 00000063> 04=0.iconst_1        
#   9005> p:a[io]=094e:0000[ca:01] rp=03<0008> sp=0c<00000063, 00000001> 60=0.iadd            
#   9006> p:a[io]=094f:0000[09:64] rp=03<0008> sp=0b<0000004d, 00000064> ca=0.donext          
#   9007> p:a[io]=0950:0009[4c:64] rp=03<0008> sp=0b<0000004d, 00000064> ca=1.donext          
#   9008> p:a[io]=094c:0000[04:64] rp=03<0007> sp=0b<0000004d, 00000064> ca=2.donext          
#   9009> p:a[io]=094d:0000[60:64] rp=03<0007> sp=0b<0000004d, 00000064> 04=0.iconst_1        
#   9010> p:a[io]=094e:0000[ca:01] rp=03<0007> sp=0c<00000064, 00000001> 60=0.iadd            
#   9011> p:a[io]=094f:0000[09:65] rp=03<0007> sp=0b<0000004d, 00000065> ca=0.donext          
#   9012> p:a[io]=0950:0009[4c:65] rp=03<0007> sp=0b<0000004d, 00000065> ca=1.donext          
#   9013> p:a[io]=094c:0000[04:65] rp=03<0006> sp=0b<0000004d, 00000065> ca=2.donext          
#   9014> p:a[io]=094d:0000[60:65] rp=03<0006> sp=0b<0000004d, 00000065> 04=0.iconst_1        
#   9015> p:a[io]=094e:0000[ca:01] rp=03<0006> sp=0c<00000065, 00000001> 60=0.iadd            
#   9016> p:a[io]=094f:0000[09:66] rp=03<0006> sp=0b<0000004d, 00000066> ca=0.donext          
#   9017> p:a[io]=0950:0009[4c:66] rp=03<0006> sp=0b<0000004d, 00000066> ca=1.donext          
#   9018> p:a[io]=094c:0000[04:66] rp=03<0005> sp=0b<0000004d, 00000066> ca=2.donext          
#   9019> p:a[io]=094d:0000[60:66] rp=03<0005> sp=0b<0000004d, 00000066> 04=0.iconst_1        
#   9020> p:a[io]=094e:0000[ca:01] rp=03<0005> sp=0c<00000066, 00000001> 60=0.iadd            
#   9021> p:a[io]=094f:0000[09:67] rp=03<0005> sp=0b<0000004d, 00000067> ca=0.donext          
#   9022> p:a[io]=0950:0009[4c:67] rp=03<0005> sp=0b<0000004d, 00000067> ca=1.donext          
#   9023> p:a[io]=094c:0000[04:67] rp=03<0004> sp=0b<0000004d, 00000067> ca=2.donext          
#   9024> p:a[io]=094d:0000[60:67] rp=03<0004> sp=0b<0000004d, 00000067> 04=0.iconst_1        
#   9025> p:a[io]=094e:0000[ca:01] rp=03<0004> sp=0c<00000067, 00000001> 60=0.iadd            
#   9026> p:a[io]=094f:0000[09:68] rp=03<0004> sp=0b<0000004d, 00000068> ca=0.donext          
#   9027> p:a[io]=0950:0009[4c:68] rp=03<0004> sp=0b<0000004d, 00000068> ca=1.donext          
#   9028> p:a[io]=094c:0000[04:68] rp=03<0003> sp=0b<0000004d, 00000068> ca=2.donext          
#   9029> p:a[io]=094d:0000[60:68] rp=03<0003> sp=0b<0000004d, 00000068> 04=0.iconst_1        
#   9030> p:a[io]=094e:0000[ca:01] rp=03<0003> sp=0c<00000068, 00000001> 60=0.iadd            
#   9031> p:a[io]=094f:0000[09:69] rp=03<0003> sp=0b<0000004d, 00000069> ca=0.donext          
#   9032> p:a[io]=0950:0009[4c:69] rp=03<0003> sp=0b<0000004d, 00000069> ca=1.donext          
#   9033> p:a[io]=094c:0000[04:69] rp=03<0002> sp=0b<0000004d, 00000069> ca=2.donext          
#   9034> p:a[io]=094d:0000[60:69] rp=03<0002> sp=0b<0000004d, 00000069> 04=0.iconst_1        
#   9035> p:a[io]=094e:0000[ca:01] rp=03<0002> sp=0c<00000069, 00000001> 60=0.iadd            
#   9036> p:a[io]=094f:0000[09:6a] rp=03<0002> sp=0b<0000004d, 0000006a> ca=0.donext          
#   9037> p:a[io]=0950:0009[4c:6a] rp=03<0002> sp=0b<0000004d, 0000006a> ca=1.donext          
#   9038> p:a[io]=094c:0000[04:6a] rp=03<0001> sp=0b<0000004d, 0000006a> ca=2.donext          
#   9039> p:a[io]=094d:0000[60:6a] rp=03<0001> sp=0b<0000004d, 0000006a> 04=0.iconst_1        
#   9040> p:a[io]=094e:0000[ca:01] rp=03<0001> sp=0c<0000006a, 00000001> 60=0.iadd            
#   9041> p:a[io]=094f:0000[09:6b] rp=03<0001> sp=0b<0000004d, 0000006b> ca=0.donext          
#   9042> p:a[io]=0950:0009[4c:6b] rp=03<0001> sp=0b<0000004d, 0000006b> ca=1.donext          
